Chapter 4: Handling Nonsampling Errors
…
# add variable RESP_POP to province91 data
obs <- c(18, 9, 22, 21, 30) # municipalities: Kuhmoinen, Joutsa, Luhanka, Leivonmäki and Toivakka 
# create a RESP_POP indicator: RESP_POP=2 if valid responses has not been received
province91$RESP_POP[province91$Id %in% obs] <- 2
`%notin%` <- Negate(`%in%`) # create notin operator
# RESP_POP=1 if valid responses has been received
province91$RESP_POP[province91$Id %notin% obs] <- 1

print("List data:")

## [1] "List data:"

province91

## # A tibble: 32 x 10
##    Stratum Cluster    Id Municipality POP91 LAB91  UE91 HOU85 URB85 RESP_POP
##      <dbl>   <dbl> <dbl> <chr>        <dbl> <dbl> <dbl> <dbl> <dbl>    <dbl>
##  1       1       1     1 Jyväskylä    67200 33786  4123 26881     1        1
##  2       1       2     2 Jämsä        12907  6016   666  4663     1        1
##  3       1       2     3 Jämsänkoski   8118  3818   528  3019     1        1
##  4       1       2     4 Keuruu       12707  5919   760  4896     1        1
##  5       1       3     5 Saarijärvi   10774  4930   721  3730     1        1
##  6       1       5     6 Suolahti      6159  3022   457  2389     1        1
##  7       1       3     7 Äänekoski    11595  5823   767  4264     1        1
##  8       2       5     8 Hankasalmi    6080  2594   391  2179     0        1
##  9       2       6     9 Joutsa        4594  2069   194  1823     0        2
## 10       2       7    10 Jyväskmlk    29349 13727  1623  9230     0        1
## # ... with 22 more rows
…
