Chapter 6: Model-Assisted Estimation for Domains
…
load("saem.Rdata")

n <- 392 # SRSWOR sample (n=392 persons) from the Occupational Health Care Survey (OHC) data set (N=7841 persons) 
library(tidyverse)
print("Some descriptives by domains:")

## [1] "Some descriptives by domains:"

sae2 <- saem %>% group_by(DOMAIN) %>% 
          summarise(n_Pop = n(), t_chron = sum(CHRON), mean_chron = mean(CHRON), std_chron = sd(CHRON)) %>% 
          arrange(n_Pop)
sae2

## # A tibble: 30 x 5
##    DOMAIN n_Pop t_chron mean_chron std_chron
##     <dbl> <int>   <dbl>      <dbl>     <dbl>
##  1     10    81      27      0.333     0.474
##  2     20   101      31      0.307     0.464
##  3     18   129      36      0.279     0.450
##  4      3   133      29      0.218     0.414
##  5      8   141      29      0.206     0.406
##  6     30   146      34      0.233     0.424
##  7     21   153      48      0.314     0.466
##  8     23   156      57      0.365     0.483
##  9     16   165      45      0.273     0.447
## 10      1   181      33      0.182     0.387
## # ... with 20 more rows
…
